# Blender v2.79 (sub 0) OBJ File: 'star switch.blend'
# www.blender.org
mtllib star switch col.mtl
o Cylinder
v -0.000000 0.000000 -0.634004
v -0.000000 0.500000 -0.261967
v 0.873949 0.000000 -1.202887
v 0.361111 0.500000 -0.497026
v 0.602974 0.000000 -0.195918
v 0.249145 0.500000 -0.080952
v 1.414079 0.000000 0.459462
v 0.584289 0.500000 0.189847
v 0.372658 0.000000 0.512920
v 0.153980 0.500000 0.211936
v -0.000000 0.000000 1.486851
v -0.000000 0.500000 0.614358
v -0.372658 0.000000 0.512920
v -0.153980 0.500000 0.211936
v -1.414079 0.000000 0.459462
v -0.584289 0.500000 0.189847
v -0.602974 0.000000 -0.195918
v -0.249145 0.500000 -0.080952
v -0.873948 0.000000 -1.202888
v -0.361110 0.500000 -0.497026
v -0.000000 0.250000 -0.634004
v 0.873949 0.250000 -1.202888
v 0.602974 0.250000 -0.195918
v 1.414079 0.250000 0.459462
v 0.372658 0.250000 0.512920
v -0.000000 0.250000 1.486851
v -0.372659 0.250000 0.512920
v -1.414079 0.250000 0.459462
v -0.602974 0.250000 -0.195918
v -0.873948 0.250000 -1.202888
v 0.587785 0.500000 -0.809017
v -0.000000 0.500000 -0.426408
v 0.405538 0.500000 -0.131767
v 0.951056 0.500000 0.309017
v 0.250636 0.500000 0.344971
v -0.000000 0.500000 1.000000
v -0.250636 0.500000 0.344971
v -0.951056 0.500000 0.309017
v -0.405538 0.500000 -0.131767
v -0.587785 0.500000 -0.809017
vt 1.000000 1.000000
vt 0.000000 0.000000
vt 1.000000 0.000000
vt 0.000000 1.000000
vt 1.000000 0.000000
vt 1.000000 1.000000
vt 1.000000 1.000000
vt 0.000000 0.000000
vt 1.000000 0.000000
vt 0.000000 1.000000
vt 1.000000 0.000000
vt 1.000000 1.000000
vt 1.000000 1.000000
vt 0.000000 0.000000
vt 1.000000 0.000000
vt 0.000000 1.000000
vt 1.000000 0.000000
vt 1.000000 1.000000
vt 1.000000 1.000000
vt 0.000000 0.000000
vt 1.000000 0.000000
vt 0.000000 1.000000
vt 1.000000 0.000000
vt 1.000000 1.000000
vt 0.617656 0.662536
vt 0.362501 0.662536
vt 0.283653 0.419868
vt 1.000000 1.000000
vt 0.000000 0.000000
vt 1.000000 0.000000
vt 0.000000 1.000000
vt 1.000000 0.000000
vt 1.000000 1.000000
vt 0.000000 1.000000
vt 1.000000 0.000000
vt 1.000000 1.000000
vt 0.000000 1.000000
vt 1.000000 0.000000
vt 1.000000 1.000000
vt 1.000000 1.000000
vt 0.000000 0.000000
vt 1.000000 0.000000
vt 0.000000 1.000000
vt 1.000000 0.000000
vt 1.000000 1.000000
vt 0.000000 1.000000
vt 1.000000 0.000000
vt 1.000000 1.000000
vt 0.000000 1.000000
vt 1.000000 0.000000
vt 1.000000 1.000000
vt 1.000000 1.000000
vt 0.000000 0.000000
vt 1.000000 0.000000
vt 0.000000 1.000000
vt 1.000000 0.000000
vt 1.000000 1.000000
vt 1.000000 1.000000
vt 0.000000 0.000000
vt 1.000000 0.000000
vt 0.000000 1.000000
vt 1.000000 0.000000
vt 1.000000 1.000000
vt 0.000000 0.000000
vt 1.000000 1.000000
vt 0.000000 1.000000
vt 0.000000 1.000000
vt 1.000000 -0.000000
vt 1.000000 1.000000
vt 0.000000 0.000000
vt 1.000000 1.000000
vt 0.000000 1.000000
vt 0.000000 1.000000
vt 1.000000 -0.000000
vt 1.000000 1.000000
vt 0.000000 0.000000
vt 1.000000 1.000000
vt 0.000000 1.000000
vt 0.000000 1.000000
vt 1.000000 -0.000000
vt 1.000000 1.000000
vt 0.000000 0.000000
vt 1.000000 1.000000
vt 0.000000 1.000000
vt 0.000000 1.000000
vt 1.000000 -0.000000
vt 1.000000 1.000000
vt 0.000000 0.000000
vt 1.000000 1.000000
vt 0.000000 1.000000
vt 0.000000 1.000000
vt 1.000000 -0.000000
vt 1.000000 1.000000
vt 0.000000 1.000000
vt 0.000000 0.000000
vt 0.000000 1.000000
vt 0.000000 0.000000
vt 0.000000 1.000000
vt 0.000000 0.000000
vt 0.000000 1.000000
vt 0.000000 0.000000
vt 0.190886 0.075137
vt 0.490079 0.269891
vt 0.789271 0.075137
vt 0.696504 0.419868
vt 0.974182 0.644235
vt 0.490079 0.995956
vt 0.005975 0.644235
vt 0.000000 1.000000
vt 0.000000 0.000000
vt 0.000000 0.000000
vt 0.000000 0.000000
vt 0.000000 1.000000
vt 0.000000 0.000000
vt 0.000000 0.000000
vt 0.000000 0.000000
vt 0.000000 1.000000
vt 0.000000 0.000000
vt 0.000000 1.000000
vt 0.000000 0.000000
vt 1.000000 -0.000000
vt 0.000000 0.000000
vt 1.000000 -0.000000
vt 0.000000 0.000000
vt 1.000000 -0.000000
vt 0.000000 0.000000
vt 1.000000 -0.000000
vt 0.000000 0.000000
vt 1.000000 -0.000000
vt 0.000000 0.000000
vn 0.0000 0.3846 -0.9231
vn 0.2232 0.9250 -0.3072
vn 0.5342 0.4172 -0.7353
vn 0.8779 0.3846 -0.2852
vn 0.3612 0.9250 0.1173
vn 0.8643 0.4172 0.2808
vn 0.5426 0.3846 0.7468
vn 0.0000 0.9250 0.3798
vn 0.0000 0.4172 0.9088
vn -0.5426 0.3846 0.7468
vn -0.3612 0.9250 0.1173
vn -0.8643 0.4172 0.2808
vn -0.8779 0.3846 -0.2852
vn 0.0000 1.0000 0.0000
vn -0.2232 0.9250 -0.3072
vn -0.5342 0.4172 -0.7353
vn 0.0000 0.0000 -1.0000
vn -0.5878 0.0000 -0.8090
vn -0.9510 0.0000 -0.3090
vn -0.9510 0.0000 0.3090
vn -0.5878 0.0000 0.8090
vn 0.0000 0.0000 1.0000
vn 0.5878 0.0000 0.8090
vn 0.9510 0.0000 0.3090
vn 0.9510 0.0000 -0.3090
vn 0.5878 0.0000 -0.8090
vn 0.0000 0.9593 -0.2821
vn 0.2683 0.9593 -0.0872
vn 0.1658 0.9593 0.2282
vn -0.1658 0.9593 0.2282
vn -0.2683 0.9593 -0.0872
usemtl None
s 1
f 21/1/1 31/2/2 22/3/3
f 31/4/2 23/5/4 22/6/3
f 23/7/4 34/8/5 24/9/6
f 34/10/5 25/11/7 24/12/6
f 25/13/7 36/14/8 26/15/9
f 36/16/8 27/17/10 26/18/9
f 27/19/10 38/20/11 28/21/12
f 38/22/11 29/23/13 28/24/12
f 14/25/14 10/26/14 6/27/14
f 29/28/13 40/29/15 30/30/16
f 40/31/15 21/32/1 30/33/16
f 30/34/16 1/35/17 19/36/18
f 29/37/13 19/38/18 17/39/19
f 15/40/20 29/41/13 17/42/19
f 27/43/10 15/44/20 13/45/21
f 26/46/9 13/47/21 11/48/22
f 25/49/7 11/50/22 9/51/23
f 7/52/24 25/53/7 9/54/23
f 23/55/4 7/56/24 5/57/25
f 3/58/26 23/59/4 5/60/25
f 21/61/1 3/62/26 1/63/17
f 4/64/14 32/65/27 2/66/14
f 4/67/14 33/68/28 31/69/2
f 8/70/14 33/71/28 6/72/14
f 8/73/14 35/74/29 34/75/5
f 12/76/14 35/77/29 10/78/14
f 12/79/14 37/80/30 36/81/8
f 16/82/14 37/83/30 14/84/14
f 16/85/14 39/86/31 38/87/11
f 20/88/14 39/89/31 18/90/14
f 20/91/14 32/92/27 40/93/15
f 21/1/1 32/94/27 31/2/2
f 31/4/2 33/95/28 23/5/4
f 23/7/4 33/96/28 34/8/5
f 34/10/5 35/97/29 25/11/7
f 25/13/7 35/98/29 36/14/8
f 36/16/8 37/99/30 27/17/10
f 27/19/10 37/100/30 38/20/11
f 38/22/11 39/101/31 29/23/13
f 6/27/14 4/102/14 2/103/14
f 2/103/14 20/104/14 18/105/14
f 18/105/14 16/106/14 14/25/14
f 14/25/14 12/107/14 10/26/14
f 10/26/14 8/108/14 6/27/14
f 6/27/14 2/103/14 18/105/14
f 18/105/14 14/25/14 6/27/14
f 29/28/13 39/109/31 40/29/15
f 40/31/15 32/110/27 21/32/1
f 30/34/16 21/111/1 1/35/17
f 29/37/13 30/112/16 19/38/18
f 15/40/20 28/113/12 29/41/13
f 27/43/10 28/114/12 15/44/20
f 26/46/9 27/115/10 13/47/21
f 25/49/7 26/116/9 11/50/22
f 7/52/24 24/117/6 25/53/7
f 23/55/4 24/118/6 7/56/24
f 3/58/26 22/119/3 23/59/4
f 21/61/1 22/120/3 3/62/26
f 4/64/14 31/121/2 32/65/27
f 4/67/14 6/122/14 33/68/28
f 8/70/14 34/123/5 33/71/28
f 8/73/14 10/124/14 35/74/29
f 12/76/14 36/125/8 35/77/29
f 12/79/14 14/126/14 37/80/30
f 16/82/14 38/127/11 37/83/30
f 16/85/14 18/128/14 39/86/31
f 20/88/14 40/129/15 39/89/31
f 20/91/14 2/130/14 32/92/27
