# Blender MTL File: 'switch plat switch.blend'
# Material Count: 3

newmtl Material
Ns 96.078431
Ka 1.000000 1.000000 1.000000
Kd 0.640000 0.640000 0.640000
Ks 0.500000 0.500000 0.500000
Ke 0.000000 0.000000 0.000000
Ni 1.000000
d 0.600000
illum 2
map_Kd DD040_O012.png

newmtl solid
Ns 96.078431
Ka 1.000000 1.000000 1.000000
Kd 0.151700 0.640000 0.012487
Ks 0.500000 0.500000 0.500000
Ke 0.000000 0.000000 0.000000
Ni 1.000000
d 1.000000
illum 2
map_Kd DD040_O014.png

newmtl solid_NONE
Ns 96.078431
Ka 1.000000 1.000000 1.000000
Kd 0.151700 0.640000 0.012487
Ks 0.500000 0.500000 0.500000
Ke 0.000000 0.000000 0.000000
Ni 1.000000
d 1.000000
illum 2
