# Blender v2.79 (sub 7) OBJ File: 'A BLOCK.blend'
# www.blender.org
mtllib A BLOCK.mtl
o Cube
v -0.000000 -1.000000 -0.000000
v 1.000000 -1.000000 1.000000
v -1.000000 -1.000000 -1.000000
v 1.000000 1.000000 -0.999999
v 0.999999 1.000000 1.000001
v -1.000000 1.000000 1.000000
v -1.000000 1.000000 -1.000000
v 1.000000 0.000000 -1.000000
v 1.000000 0.000000 1.000000
v -1.000000 0.000000 1.000000
v -1.000000 0.000000 -1.000000
vt 1.000000 0.000000
vt 0.000000 1.000000
vt 0.000000 0.000000
vt 1.000000 1.000000
vt 0.000000 0.500000
vt 0.000000 0.000000
vt 1.000000 0.500000
vt 0.000000 1.000000
vt -1.000000 0.000000
vt 0.000000 0.000000
vt -1.000000 1.000000
vt -2.000000 0.000000
vt 2.000000 1.000000
vt 1.000000 0.000000
vt 2.000000 -0.000000
vt 0.000000 0.500000
vt 0.000000 0.000000
vt 1.000000 0.000000
vt 1.000000 1.000000
vt 0.000000 0.500000
vt 0.000000 0.000000
vt 1.000000 0.000000
vt 1.000000 0.000000
vt 1.000000 0.500000
vt 1.000000 0.500000
vt 1.000000 0.500000
vt -2.000000 1.000000
vn 0.0000 1.0000 0.0000
vn -0.4082 -0.8165 0.4082
vn 1.0000 -0.0000 0.0000
vn -0.0000 -0.0000 1.0000
vn -1.0000 0.0000 -0.0000
vn 0.4082 -0.8165 -0.4082
vn 0.0000 0.0000 -1.0000
usemtl Material
s off
f 7/1/1 5/2/1 4/3/1
f 7/1/1 6/4/1 5/2/1
usemtl Material_MTY_O_E_ORNAMENT08.png
f 1/5/2 10/6/2 3/7/2
f 4/8/3 9/9/3 8/10/3
f 5/11/4 10/12/4 9/9/4
f 6/13/5 11/14/5 10/15/5
f 8/16/6 1/17/6 3/18/6
f 8/10/7 7/19/7 4/8/7
f 10/6/5 11/14/5 3/7/5
f 2/20/4 9/21/4 10/22/4
f 8/10/3 9/23/3 2/24/3
f 11/25/7 8/16/7 3/18/7
f 1/26/2 2/20/2 10/22/2
f 1/5/6 8/10/6 2/24/6
f 4/8/3 5/11/3 9/9/3
f 5/11/4 6/27/4 10/12/4
f 6/13/5 7/19/5 11/14/5
f 8/10/7 11/14/7 7/19/7
