# Blender v2.79 (sub 7) OBJ File: 'thunder plat.blend'
# www.blender.org
mtllib thunder plat.mtl
o Cylinder
v 0.000000 -0.077517 -0.000000
v 0.000000 0.077517 -0.000000
v 0.000000 -0.077517 -0.560000
v 0.000000 0.077517 -0.560000
v 0.484974 -0.077517 -0.280000
v 0.484974 0.077517 -0.280000
v 0.484974 -0.077517 0.280000
v 0.484974 0.077517 0.280000
v -0.000000 -0.077517 0.560000
v -0.000000 0.077517 0.560000
v -0.484974 -0.077517 0.280000
v -0.484974 0.077517 0.280000
v -0.484974 -0.077517 -0.280000
v -0.484974 0.077517 -0.280000
v 0.000000 -0.077517 -0.403237
v 0.349213 -0.077517 -0.201618
v 0.349213 0.077517 -0.201618
v 0.000000 0.077517 -0.403237
v 0.349213 -0.077517 0.201618
v 0.349213 0.077517 0.201618
v -0.000000 -0.077517 0.403237
v -0.000000 0.077517 0.403237
v -0.349213 -0.077517 0.201618
v -0.349213 0.077517 0.201618
v -0.349213 -0.077517 -0.201618
v -0.349213 0.077517 -0.201618
vt 1.000000 1.000000
vt 0.000000 1.500000
vt 0.000000 1.000000
vt 1.000000 1.500000
vt 0.000000 2.000000
vt 1.000000 -1.000000
vt 0.000000 -0.500000
vt 0.000000 -1.000000
vt 1.000000 -0.500000
vt 0.000000 0.000000
vt 1.000000 0.000000
vt 0.000000 0.500000
vt 1.000000 0.500000
vt 1.000000 2.000000
vt 0.500000 0.500000
vt 0.500000 0.884630
vt 0.884630 0.692315
vt 0.884630 0.307685
vt 0.500000 0.115370
vt 0.115370 0.307685
vt 0.115370 0.692315
vc 1.000000 0.956863 0.000000 1.000000
vc 1.000000 0.556863 0.313726 1.000000
usemtl Material
s off
f 4/1//1 5/2//1 3/3//1
f 6/4//1 7/5//1 5/2//1
f 8/6//1 9/7//1 7/8//1
f 10/9//1 11/10//1 9/7//1
f 12/11//1 13/12//1 11/10//1
f 14/13//1 3/3//1 13/12//1
f 16/7//1 3/11//1 5/9//1
f 17/10//1 4/13//1 18/12//1
f 16/7//1 7/6//1 19/8//1
f 20/7//1 6/11//1 17/10//1
f 19/5//1 9/4//1 21/2//1
f 22/8//1 8/9//1 20/7//1
f 23/3//1 9/4//1 11/1//1
f 24/2//1 10/14//1 22/5//1
f 23/3//1 13/13//1 25/12//1
f 24/2//1 14/1//1 12/4//1
f 25/12//1 3/11//1 15/10//1
f 26/3//1 4/13//1 14/1//1
f 4/1//1 6/4//1 5/2//1
f 6/4//1 8/14//1 7/5//1
f 8/6//1 10/9//1 9/7//1
f 10/9//1 12/11//1 11/10//1
f 12/11//1 14/13//1 13/12//1
f 14/13//1 4/1//1 3/3//1
f 16/7//1 15/10//1 3/11//1
f 17/10//1 6/11//1 4/13//1
f 16/7//1 5/9//1 7/6//1
f 20/7//1 8/9//1 6/11//1
f 19/5//1 7/14//1 9/4//1
f 22/8//1 10/6//1 8/9//1
f 23/3//1 21/2//1 9/4//1
f 24/2//1 12/4//1 10/14//1
f 23/3//1 11/1//1 13/13//1
f 24/2//1 26/3//1 14/1//1
f 25/12//1 13/13//1 3/11//1
f 26/3//1 18/12//1 4/13//1
usemtl Material_tk_dim_step02.png
f 1/15//2 15/16//2 16/17//2
f 2/15//2 17/17//2 18/16//2
f 1/15//2 16/17//2 19/18//2
f 2/15//2 20/18//2 17/17//2
f 1/15//2 19/18//2 21/19//2
f 2/15//2 22/19//2 20/18//2
f 1/15//2 21/19//2 23/20//2
f 2/15//2 24/20//2 22/19//2
f 1/15//2 23/20//2 25/21//2
f 2/15//2 26/21//2 24/20//2
f 1/15//2 25/21//2 15/16//2
f 2/15//2 18/16//2 26/21//2
