# Blender MTL File: 'balloon.blend'
# Material Count: 2

newmtl None
Ns 0
Ka 0.000000 0.000000 0.000000
Kd 0.8 0.8 0.8
Ks 0.8 0.8 0.8
d 1
illum 2
map_Kd PURP BALLOON.png

newmtl None_qua_b_cw1_jellyfishb02.png
Ns 0
Ka 0.000000 0.000000 0.000000
Kd 0.8 0.8 0.8
Ks 0.8 0.8 0.8
d 1
illum 2
map_Kd qua_b_cw1_jellyfishb02.png
